###################################################################################################################################
#  Este e um ambiente de propriedade da Telefonica, qualquer acesso nao autorizado, uso indevido das informacoes, descumprimento  #
#  das Normativas de Seguranca da Informacao pode resultar na aplicacao de medidas disciplinares, administrativas e/ou judiciais. #
#  A Telefonica podera monitorar e auditar o acesso e uso de seus recursos, sistemas e informacoes, sem aviso previo.             #
#                                                                                                                                 #
#                         Servidor incluido nas novas regras de acesso do Suporte Tecnico                                         #
###################################################################################################################################

